%YAML 1.1
%TAG !u! tag:unity3d.com,2011:
--- !u!114 &11400000
MonoBehaviour:
  m_ObjectHideFlags: 0
  m_CorrespondingSourceObject: {fileID: 0}
  m_PrefabInstance: {fileID: 0}
  m_PrefabAsset: {fileID: 0}
  m_GameObject: {fileID: 0}
  m_Enabled: 1
  m_EditorHideFlags: 0
  m_Script: {fileID: 11500000, guid: 102beb282a44dd8458a8566b5ab733ed, type: 3}
  m_Name: Rock
  m_EditorClassIdentifier: 
  itemName: Rock
  itemType: 0
  itemImage: {fileID: 21300000, guid: 860dbe06f95a324479860c9c05ad0213, type: 3}
  itemPrefab: {fileID: 4856263667143127250, guid: 5645bb8a7f9bd4845a338cc434732a65, type: 3}
  weaponType: 
